<svg width="16" height="15" viewBox="0 0 16 15" fill="none" xmlns="http://www.w3.org/2000/svg">
<rect x="7.98529" y="0.485352" width="10" height="10" transform="rotate(45 7.98529 0.485352)" fill="white"/>
</svg>
