<svg width="30" height="30" viewBox="0 0 30 30" fill="none" xmlns="http://www.w3.org/2000/svg">
<path d="M14.9994 18.0029C16.6543 18.0029 18.0035 16.6561 18.0035 15C18.0035 14.3462 17.7896 13.7426 17.4355 13.2496C16.8899 12.4931 16.003 11.9971 15.0012 11.9971C13.9988 11.9971 13.1124 12.4925 12.5656 13.249C12.2104 13.742 11.9983 14.3456 11.9977 14.9994C11.9959 16.6555 13.3439 18.0029 14.9994 18.0029Z" fill="white"/>
<path d="M21.5569 11.3263V8.80918V8.43457L21.1805 8.43578L18.6646 8.44363L18.6742 11.336L21.5569 11.3263Z" fill="white"/>
<path d="M15 0C6.72903 0 0 6.72903 0 15C0 23.2704 6.72903 30 15 30C23.2704 30 30 23.2704 30 15C30 6.72903 23.2716 0 15 0ZM23.5308 13.2496V20.2342C23.5308 22.0535 22.0517 23.532 20.2336 23.532H9.76637C7.94772 23.532 6.46923 22.0535 6.46923 20.2342V13.2496V9.76698C6.46923 7.94832 7.94772 6.46983 9.76637 6.46983H20.233C22.0517 6.46983 23.5308 7.94832 23.5308 9.76698V13.2496Z" fill="white"/>
<path d="M19.6663 15.0001C19.6663 17.5722 17.5733 19.6664 15 19.6664C12.4267 19.6664 10.3343 17.5722 10.3343 15.0001C10.3343 14.3814 10.4576 13.7899 10.6775 13.2498H8.1308V20.2344C8.1308 21.1371 8.8637 21.8681 9.76578 21.8681H20.2324C21.1333 21.8681 21.8674 21.1371 21.8674 20.2344V13.2498H19.3195C19.5412 13.7899 19.6663 14.3814 19.6663 15.0001Z" fill="white"/>
</svg>
