<svg width="48" height="24" viewBox="0 0 48 24" fill="none" xmlns="http://www.w3.org/2000/svg">
<path d="M46.9914 1.99138C47.3819 1.60085 47.3819 0.96769 46.9914 0.577164C46.6009 0.18664 45.9677 0.18664 45.5772 0.577164L46.9914 1.99138ZM2.42284 0.577164C2.03231 0.18664 1.39915 0.18664 1.00862 0.577164C0.618097 0.96769 0.618099 1.60085 1.00862 1.99138L2.42284 0.577164ZM45.5772 0.577164L24.7019 21.4524L26.1162 22.8666L46.9914 1.99138L45.5772 0.577164ZM23.2981 21.4524L2.42284 0.577164L1.00862 1.99138L21.8838 22.8666L23.2981 21.4524ZM24.7019 21.4524C24.3114 21.8429 23.6886 21.8429 23.2981 21.4524L21.8838 22.8666C23.0554 24.0382 24.9446 24.0382 26.1162 22.8666L24.7019 21.4524Z" fill="white"/>
</svg>
